<?xml version="1.0" encoding="utf-8"  standalone="no"?>
<svg 
 width="900" height="900"
 viewBox="0 0 900 900"
 xmlns="http://www.w3.org/2000/svg"
 xmlns:xlink="http://www.w3.org/1999/xlink"
>

<title>Gnuplot</title>
<desc>Produced by GNUPLOT 5.4 patchlevel 2 </desc>

<g id="gnuplot_canvas">

<rect x="0" y="0" width="900" height="900" fill="none"/>
<defs>

	<circle id='gpDot' r='0.5' stroke-width='0.5' stroke='currentColor'/>
	<path id='gpPt0' stroke-width='0.222' stroke='currentColor' d='M-1,0 h2 M0,-1 v2'/>
	<path id='gpPt1' stroke-width='0.222' stroke='currentColor' d='M-1,-1 L1,1 M1,-1 L-1,1'/>
	<path id='gpPt2' stroke-width='0.222' stroke='currentColor' d='M-1,0 L1,0 M0,-1 L0,1 M-1,-1 L1,1 M-1,1 L1,-1'/>
	<rect id='gpPt3' stroke-width='0.222' stroke='currentColor' x='-1' y='-1' width='2' height='2'/>
	<rect id='gpPt4' stroke-width='0.222' stroke='currentColor' fill='currentColor' x='-1' y='-1' width='2' height='2'/>
	<circle id='gpPt5' stroke-width='0.222' stroke='currentColor' cx='0' cy='0' r='1'/>
	<use xlink:href='#gpPt5' id='gpPt6' fill='currentColor' stroke='none'/>
	<path id='gpPt7' stroke-width='0.222' stroke='currentColor' d='M0,-1.33 L-1.33,0.67 L1.33,0.67 z'/>
	<use xlink:href='#gpPt7' id='gpPt8' fill='currentColor' stroke='none'/>
	<use xlink:href='#gpPt7' id='gpPt9' stroke='currentColor' transform='rotate(180)'/>
	<use xlink:href='#gpPt9' id='gpPt10' fill='currentColor' stroke='none'/>
	<use xlink:href='#gpPt3' id='gpPt11' stroke='currentColor' transform='rotate(45)'/>
	<use xlink:href='#gpPt11' id='gpPt12' fill='currentColor' stroke='none'/>
	<path id='gpPt13' stroke-width='0.222' stroke='currentColor' d='M0,1.330 L1.265,0.411 L0.782,-1.067 L-0.782,-1.076 L-1.265,0.411 z'/>
	<use xlink:href='#gpPt13' id='gpPt14' fill='currentColor' stroke='none'/>
	<filter id='textbox' filterUnits='objectBoundingBox' x='0' y='0' height='1' width='1'>
	  <feFlood flood-color='white' flood-opacity='1' result='bgnd'/>
	  <feComposite in='SourceGraphic' in2='bgnd' operator='atop'/>
	</filter>
	<filter id='greybox' filterUnits='objectBoundingBox' x='0' y='0' height='1' width='1'>
	  <feFlood flood-color='lightgrey' flood-opacity='1' result='grey'/>
	  <feComposite in='SourceGraphic' in2='grey' operator='atop'/>
	</filter>
</defs>
<g fill="none" color="white" stroke="black" stroke-width="1.00" stroke-linecap="butt" stroke-linejoin="miter">
</g>
<g fill="none" color="black" stroke="currentColor" stroke-width="1.00" stroke-linecap="butt" stroke-linejoin="miter">
	<path stroke='black'  d='M46.14,816.61 L55.14,816.61 M874.82,816.61 L865.82,816.61  '/>	<g transform="translate(37.75,820.51)" stroke="none" fill="black" font-family="Arial" font-size="12.00"  text-anchor="end">
		<text><tspan font-family="Arial" > 0</tspan></text>
	</g>
</g>
<g fill="none" color="black" stroke="currentColor" stroke-width="1.00" stroke-linecap="butt" stroke-linejoin="miter">
	<path stroke='black'  d='M46.14,716.78 L55.14,716.78 M874.82,716.78 L865.82,716.78  '/>	<g transform="translate(37.75,720.68)" stroke="none" fill="black" font-family="Arial" font-size="12.00"  text-anchor="end">
		<text><tspan font-family="Arial" > 5</tspan></text>
	</g>
</g>
<g fill="none" color="black" stroke="currentColor" stroke-width="1.00" stroke-linecap="butt" stroke-linejoin="miter">
	<path stroke='black'  d='M46.14,616.96 L55.14,616.96 M874.82,616.96 L865.82,616.96  '/>	<g transform="translate(37.75,620.86)" stroke="none" fill="black" font-family="Arial" font-size="12.00"  text-anchor="end">
		<text><tspan font-family="Arial" > 10</tspan></text>
	</g>
</g>
<g fill="none" color="black" stroke="currentColor" stroke-width="1.00" stroke-linecap="butt" stroke-linejoin="miter">
	<path stroke='black'  d='M46.14,517.13 L55.14,517.13 M874.82,517.13 L865.82,517.13  '/>	<g transform="translate(37.75,521.03)" stroke="none" fill="black" font-family="Arial" font-size="12.00"  text-anchor="end">
		<text><tspan font-family="Arial" > 15</tspan></text>
	</g>
</g>
<g fill="none" color="black" stroke="currentColor" stroke-width="1.00" stroke-linecap="butt" stroke-linejoin="miter">
	<path stroke='black'  d='M46.14,417.31 L55.14,417.31 M874.82,417.31 L865.82,417.31  '/>	<g transform="translate(37.75,421.21)" stroke="none" fill="black" font-family="Arial" font-size="12.00"  text-anchor="end">
		<text><tspan font-family="Arial" > 20</tspan></text>
	</g>
</g>
<g fill="none" color="black" stroke="currentColor" stroke-width="1.00" stroke-linecap="butt" stroke-linejoin="miter">
	<path stroke='black'  d='M46.14,317.48 L55.14,317.48 M874.82,317.48 L865.82,317.48  '/>	<g transform="translate(37.75,321.38)" stroke="none" fill="black" font-family="Arial" font-size="12.00"  text-anchor="end">
		<text><tspan font-family="Arial" > 25</tspan></text>
	</g>
</g>
<g fill="none" color="black" stroke="currentColor" stroke-width="1.00" stroke-linecap="butt" stroke-linejoin="miter">
	<path stroke='black'  d='M46.14,217.66 L55.14,217.66 M874.82,217.66 L865.82,217.66  '/>	<g transform="translate(37.75,221.56)" stroke="none" fill="black" font-family="Arial" font-size="12.00"  text-anchor="end">
		<text><tspan font-family="Arial" > 30</tspan></text>
	</g>
</g>
<g fill="none" color="black" stroke="currentColor" stroke-width="1.00" stroke-linecap="butt" stroke-linejoin="miter">
	<path stroke='black'  d='M46.14,117.83 L55.14,117.83 M874.82,117.83 L865.82,117.83  '/>	<g transform="translate(37.75,121.73)" stroke="none" fill="black" font-family="Arial" font-size="12.00"  text-anchor="end">
		<text><tspan font-family="Arial" > 35</tspan></text>
	</g>
</g>
<g fill="none" color="black" stroke="currentColor" stroke-width="1.00" stroke-linecap="butt" stroke-linejoin="miter">
	<path stroke='black'  d='M46.14,18.01 L55.14,18.01 M874.82,18.01 L865.82,18.01  '/>	<g transform="translate(37.75,21.91)" stroke="none" fill="black" font-family="Arial" font-size="12.00"  text-anchor="end">
		<text><tspan font-family="Arial" > 40</tspan></text>
	</g>
</g>
<g fill="none" color="black" stroke="currentColor" stroke-width="1.00" stroke-linecap="butt" stroke-linejoin="miter">
</g>
<g fill="none" color="black" stroke="black" stroke-width="0.50" stroke-linecap="butt" stroke-linejoin="miter">
</g>
<g fill="none" color="gray" stroke="currentColor" stroke-width="0.50" stroke-linecap="butt" stroke-linejoin="miter">
	<path stroke='gray' stroke-dasharray='2,4' class="gridline"  d='M46.14,816.61 L46.14,18.01  '/></g>
<g fill="none" color="gray" stroke="gray" stroke-width="1.00" stroke-linecap="butt" stroke-linejoin="miter">
</g>
<g fill="none" color="black" stroke="currentColor" stroke-width="1.00" stroke-linecap="butt" stroke-linejoin="miter">
	<path stroke='black'  d='M46.14,816.61 L46.14,807.61 M46.14,18.01 L46.14,27.01  '/>	<g transform="translate(49.51,826.95) rotate(-60)" stroke="none" fill="black" font-family="Arial" font-size="12.00"  text-anchor="end">
		<text><tspan font-family="Arial" >Tue 09/13</tspan></text>
	</g>
</g>
<g fill="none" color="black" stroke="currentColor" stroke-width="1.00" stroke-linecap="butt" stroke-linejoin="miter">
	<path stroke='black'  d='M52.23,816.61 L52.23,812.11 M52.23,18.01 L52.23,22.51 M58.33,816.61 L58.33,812.11 M58.33,18.01 L58.33,22.51
		M64.42,816.61 L64.42,812.11 M64.42,18.01 L64.42,22.51  '/></g>
<g fill="none" color="black" stroke="black" stroke-width="0.50" stroke-linecap="butt" stroke-linejoin="miter">
</g>
<g fill="none" color="gray" stroke="currentColor" stroke-width="0.50" stroke-linecap="butt" stroke-linejoin="miter">
	<path stroke='gray' stroke-dasharray='2,4' class="gridline"  d='M70.51,816.61 L70.51,18.01  '/></g>
<g fill="none" color="gray" stroke="gray" stroke-width="1.00" stroke-linecap="butt" stroke-linejoin="miter">
</g>
<g fill="none" color="black" stroke="currentColor" stroke-width="1.00" stroke-linecap="butt" stroke-linejoin="miter">
	<path stroke='black'  d='M70.51,816.61 L70.51,807.61 M70.51,18.01 L70.51,27.01  '/>	<g transform="translate(73.88,826.95) rotate(-60)" stroke="none" fill="black" font-family="Arial" font-size="12.00"  text-anchor="end">
		<text><tspan font-family="Arial" >Wed 09/14</tspan></text>
	</g>
</g>
<g fill="none" color="black" stroke="currentColor" stroke-width="1.00" stroke-linecap="butt" stroke-linejoin="miter">
	<path stroke='black'  d='M76.61,816.61 L76.61,812.11 M76.61,18.01 L76.61,22.51 M82.70,816.61 L82.70,812.11 M82.70,18.01 L82.70,22.51
		M88.79,816.61 L88.79,812.11 M88.79,18.01 L88.79,22.51  '/></g>
<g fill="none" color="black" stroke="black" stroke-width="0.50" stroke-linecap="butt" stroke-linejoin="miter">
</g>
<g fill="none" color="gray" stroke="currentColor" stroke-width="0.50" stroke-linecap="butt" stroke-linejoin="miter">
	<path stroke='gray' stroke-dasharray='2,4' class="gridline"  d='M94.89,816.61 L94.89,18.01  '/></g>
<g fill="none" color="gray" stroke="gray" stroke-width="1.00" stroke-linecap="butt" stroke-linejoin="miter">
</g>
<g fill="none" color="black" stroke="currentColor" stroke-width="1.00" stroke-linecap="butt" stroke-linejoin="miter">
	<path stroke='black'  d='M94.89,816.61 L94.89,807.61 M94.89,18.01 L94.89,27.01  '/>	<g transform="translate(98.26,826.95) rotate(-60)" stroke="none" fill="black" font-family="Arial" font-size="12.00"  text-anchor="end">
		<text><tspan font-family="Arial" >Thu 09/15</tspan></text>
	</g>
</g>
<g fill="none" color="black" stroke="currentColor" stroke-width="1.00" stroke-linecap="butt" stroke-linejoin="miter">
	<path stroke='black'  d='M100.98,816.61 L100.98,812.11 M100.98,18.01 L100.98,22.51 M107.07,816.61 L107.07,812.11 M107.07,18.01 L107.07,22.51
		M113.17,816.61 L113.17,812.11 M113.17,18.01 L113.17,22.51  '/></g>
<g fill="none" color="black" stroke="black" stroke-width="0.50" stroke-linecap="butt" stroke-linejoin="miter">
</g>
<g fill="none" color="gray" stroke="currentColor" stroke-width="0.50" stroke-linecap="butt" stroke-linejoin="miter">
	<path stroke='gray' stroke-dasharray='2,4' class="gridline"  d='M119.26,816.61 L119.26,18.01  '/></g>
<g fill="none" color="gray" stroke="gray" stroke-width="1.00" stroke-linecap="butt" stroke-linejoin="miter">
</g>
<g fill="none" color="black" stroke="currentColor" stroke-width="1.00" stroke-linecap="butt" stroke-linejoin="miter">
	<path stroke='black'  d='M119.26,816.61 L119.26,807.61 M119.26,18.01 L119.26,27.01  '/>	<g transform="translate(122.63,826.95) rotate(-60)" stroke="none" fill="black" font-family="Arial" font-size="12.00"  text-anchor="end">
		<text><tspan font-family="Arial" >Fri 09/16</tspan></text>
	</g>
</g>
<g fill="none" color="black" stroke="currentColor" stroke-width="1.00" stroke-linecap="butt" stroke-linejoin="miter">
	<path stroke='black'  d='M125.35,816.61 L125.35,812.11 M125.35,18.01 L125.35,22.51 M131.45,816.61 L131.45,812.11 M131.45,18.01 L131.45,22.51
		M137.54,816.61 L137.54,812.11 M137.54,18.01 L137.54,22.51  '/></g>
<g fill="none" color="black" stroke="black" stroke-width="0.50" stroke-linecap="butt" stroke-linejoin="miter">
</g>
<g fill="none" color="gray" stroke="currentColor" stroke-width="0.50" stroke-linecap="butt" stroke-linejoin="miter">
	<path stroke='gray' stroke-dasharray='2,4' class="gridline"  d='M143.63,816.61 L143.63,18.01  '/></g>
<g fill="none" color="gray" stroke="gray" stroke-width="1.00" stroke-linecap="butt" stroke-linejoin="miter">
</g>
<g fill="none" color="black" stroke="currentColor" stroke-width="1.00" stroke-linecap="butt" stroke-linejoin="miter">
	<path stroke='black'  d='M143.63,816.61 L143.63,807.61 M143.63,18.01 L143.63,27.01  '/>	<g transform="translate(147.00,826.95) rotate(-60)" stroke="none" fill="black" font-family="Arial" font-size="12.00"  text-anchor="end">
		<text><tspan font-family="Arial" >Sat 09/17</tspan></text>
	</g>
</g>
<g fill="none" color="black" stroke="currentColor" stroke-width="1.00" stroke-linecap="butt" stroke-linejoin="miter">
	<path stroke='black'  d='M149.73,816.61 L149.73,812.11 M149.73,18.01 L149.73,22.51 M155.82,816.61 L155.82,812.11 M155.82,18.01 L155.82,22.51
		M161.91,816.61 L161.91,812.11 M161.91,18.01 L161.91,22.51  '/></g>
<g fill="none" color="black" stroke="black" stroke-width="0.50" stroke-linecap="butt" stroke-linejoin="miter">
</g>
<g fill="none" color="gray" stroke="currentColor" stroke-width="0.50" stroke-linecap="butt" stroke-linejoin="miter">
	<path stroke='gray' stroke-dasharray='2,4' class="gridline"  d='M168.00,816.61 L168.00,18.01  '/></g>
<g fill="none" color="gray" stroke="gray" stroke-width="1.00" stroke-linecap="butt" stroke-linejoin="miter">
</g>
<g fill="none" color="black" stroke="currentColor" stroke-width="1.00" stroke-linecap="butt" stroke-linejoin="miter">
	<path stroke='black'  d='M168.00,816.61 L168.00,807.61 M168.00,18.01 L168.00,27.01  '/>	<g transform="translate(171.37,826.95) rotate(-60)" stroke="none" fill="black" font-family="Arial" font-size="12.00"  text-anchor="end">
		<text><tspan font-family="Arial" >Sun 09/18</tspan></text>
	</g>
</g>
<g fill="none" color="black" stroke="currentColor" stroke-width="1.00" stroke-linecap="butt" stroke-linejoin="miter">
	<path stroke='black'  d='M174.10,816.61 L174.10,812.11 M174.10,18.01 L174.10,22.51 M180.19,816.61 L180.19,812.11 M180.19,18.01 L180.19,22.51
		M186.28,816.61 L186.28,812.11 M186.28,18.01 L186.28,22.51  '/></g>
<g fill="none" color="black" stroke="black" stroke-width="0.50" stroke-linecap="butt" stroke-linejoin="miter">
</g>
<g fill="none" color="gray" stroke="currentColor" stroke-width="0.50" stroke-linecap="butt" stroke-linejoin="miter">
	<path stroke='gray' stroke-dasharray='2,4' class="gridline"  d='M192.38,816.61 L192.38,18.01  '/></g>
<g fill="none" color="gray" stroke="gray" stroke-width="1.00" stroke-linecap="butt" stroke-linejoin="miter">
</g>
<g fill="none" color="black" stroke="currentColor" stroke-width="1.00" stroke-linecap="butt" stroke-linejoin="miter">
	<path stroke='black'  d='M192.38,816.61 L192.38,807.61 M192.38,18.01 L192.38,27.01  '/>	<g transform="translate(195.75,826.95) rotate(-60)" stroke="none" fill="black" font-family="Arial" font-size="12.00"  text-anchor="end">
		<text><tspan font-family="Arial" >Mon 09/19</tspan></text>
	</g>
</g>
<g fill="none" color="black" stroke="currentColor" stroke-width="1.00" stroke-linecap="butt" stroke-linejoin="miter">
	<path stroke='black'  d='M198.47,816.61 L198.47,812.11 M198.47,18.01 L198.47,22.51 M204.56,816.61 L204.56,812.11 M204.56,18.01 L204.56,22.51
		M210.66,816.61 L210.66,812.11 M210.66,18.01 L210.66,22.51  '/></g>
<g fill="none" color="black" stroke="black" stroke-width="0.50" stroke-linecap="butt" stroke-linejoin="miter">
</g>
<g fill="none" color="gray" stroke="currentColor" stroke-width="0.50" stroke-linecap="butt" stroke-linejoin="miter">
	<path stroke='gray' stroke-dasharray='2,4' class="gridline"  d='M216.75,816.61 L216.75,18.01  '/></g>
<g fill="none" color="gray" stroke="gray" stroke-width="1.00" stroke-linecap="butt" stroke-linejoin="miter">
</g>
<g fill="none" color="black" stroke="currentColor" stroke-width="1.00" stroke-linecap="butt" stroke-linejoin="miter">
	<path stroke='black'  d='M216.75,816.61 L216.75,807.61 M216.75,18.01 L216.75,27.01  '/>	<g transform="translate(220.12,826.95) rotate(-60)" stroke="none" fill="black" font-family="Arial" font-size="12.00"  text-anchor="end">
		<text><tspan font-family="Arial" >Tue 09/20</tspan></text>
	</g>
</g>
<g fill="none" color="black" stroke="currentColor" stroke-width="1.00" stroke-linecap="butt" stroke-linejoin="miter">
	<path stroke='black'  d='M222.84,816.61 L222.84,812.11 M222.84,18.01 L222.84,22.51 M228.94,816.61 L228.94,812.11 M228.94,18.01 L228.94,22.51
		M235.03,816.61 L235.03,812.11 M235.03,18.01 L235.03,22.51  '/></g>
<g fill="none" color="black" stroke="black" stroke-width="0.50" stroke-linecap="butt" stroke-linejoin="miter">
</g>
<g fill="none" color="gray" stroke="currentColor" stroke-width="0.50" stroke-linecap="butt" stroke-linejoin="miter">
	<path stroke='gray' stroke-dasharray='2,4' class="gridline"  d='M241.12,816.61 L241.12,18.01  '/></g>
<g fill="none" color="gray" stroke="gray" stroke-width="1.00" stroke-linecap="butt" stroke-linejoin="miter">
</g>
<g fill="none" color="black" stroke="currentColor" stroke-width="1.00" stroke-linecap="butt" stroke-linejoin="miter">
	<path stroke='black'  d='M241.12,816.61 L241.12,807.61 M241.12,18.01 L241.12,27.01  '/>	<g transform="translate(244.49,826.95) rotate(-60)" stroke="none" fill="black" font-family="Arial" font-size="12.00"  text-anchor="end">
		<text><tspan font-family="Arial" >Wed 09/21</tspan></text>
	</g>
</g>
<g fill="none" color="black" stroke="currentColor" stroke-width="1.00" stroke-linecap="butt" stroke-linejoin="miter">
	<path stroke='black'  d='M247.22,816.61 L247.22,812.11 M247.22,18.01 L247.22,22.51 M253.31,816.61 L253.31,812.11 M253.31,18.01 L253.31,22.51
		M259.40,816.61 L259.40,812.11 M259.40,18.01 L259.40,22.51  '/></g>
<g fill="none" color="black" stroke="black" stroke-width="0.50" stroke-linecap="butt" stroke-linejoin="miter">
</g>
<g fill="none" color="gray" stroke="currentColor" stroke-width="0.50" stroke-linecap="butt" stroke-linejoin="miter">
	<path stroke='gray' stroke-dasharray='2,4' class="gridline"  d='M265.50,816.61 L265.50,18.01  '/></g>
<g fill="none" color="gray" stroke="gray" stroke-width="1.00" stroke-linecap="butt" stroke-linejoin="miter">
</g>
<g fill="none" color="black" stroke="currentColor" stroke-width="1.00" stroke-linecap="butt" stroke-linejoin="miter">
	<path stroke='black'  d='M265.50,816.61 L265.50,807.61 M265.50,18.01 L265.50,27.01  '/>	<g transform="translate(268.87,826.95) rotate(-60)" stroke="none" fill="black" font-family="Arial" font-size="12.00"  text-anchor="end">
		<text><tspan font-family="Arial" >Thu 09/22</tspan></text>
	</g>
</g>
<g fill="none" color="black" stroke="currentColor" stroke-width="1.00" stroke-linecap="butt" stroke-linejoin="miter">
	<path stroke='black'  d='M271.59,816.61 L271.59,812.11 M271.59,18.01 L271.59,22.51 M277.68,816.61 L277.68,812.11 M277.68,18.01 L277.68,22.51
		M283.78,816.61 L283.78,812.11 M283.78,18.01 L283.78,22.51  '/></g>
<g fill="none" color="black" stroke="black" stroke-width="0.50" stroke-linecap="butt" stroke-linejoin="miter">
</g>
<g fill="none" color="gray" stroke="currentColor" stroke-width="0.50" stroke-linecap="butt" stroke-linejoin="miter">
	<path stroke='gray' stroke-dasharray='2,4' class="gridline"  d='M289.87,816.61 L289.87,18.01  '/></g>
<g fill="none" color="gray" stroke="gray" stroke-width="1.00" stroke-linecap="butt" stroke-linejoin="miter">
</g>
<g fill="none" color="black" stroke="currentColor" stroke-width="1.00" stroke-linecap="butt" stroke-linejoin="miter">
	<path stroke='black'  d='M289.87,816.61 L289.87,807.61 M289.87,18.01 L289.87,27.01  '/>	<g transform="translate(293.24,826.95) rotate(-60)" stroke="none" fill="black" font-family="Arial" font-size="12.00"  text-anchor="end">
		<text><tspan font-family="Arial" >Fri 09/23</tspan></text>
	</g>
</g>
<g fill="none" color="black" stroke="currentColor" stroke-width="1.00" stroke-linecap="butt" stroke-linejoin="miter">
	<path stroke='black'  d='M295.96,816.61 L295.96,812.11 M295.96,18.01 L295.96,22.51 M302.06,816.61 L302.06,812.11 M302.06,18.01 L302.06,22.51
		M308.15,816.61 L308.15,812.11 M308.15,18.01 L308.15,22.51  '/></g>
<g fill="none" color="black" stroke="black" stroke-width="0.50" stroke-linecap="butt" stroke-linejoin="miter">
</g>
<g fill="none" color="gray" stroke="currentColor" stroke-width="0.50" stroke-linecap="butt" stroke-linejoin="miter">
	<path stroke='gray' stroke-dasharray='2,4' class="gridline"  d='M314.24,816.61 L314.24,18.01  '/></g>
<g fill="none" color="gray" stroke="gray" stroke-width="1.00" stroke-linecap="butt" stroke-linejoin="miter">
</g>
<g fill="none" color="black" stroke="currentColor" stroke-width="1.00" stroke-linecap="butt" stroke-linejoin="miter">
	<path stroke='black'  d='M314.24,816.61 L314.24,807.61 M314.24,18.01 L314.24,27.01  '/>	<g transform="translate(317.61,826.95) rotate(-60)" stroke="none" fill="black" font-family="Arial" font-size="12.00"  text-anchor="end">
		<text><tspan font-family="Arial" >Sat 09/24</tspan></text>
	</g>
</g>
<g fill="none" color="black" stroke="currentColor" stroke-width="1.00" stroke-linecap="butt" stroke-linejoin="miter">
	<path stroke='black'  d='M320.34,816.61 L320.34,812.11 M320.34,18.01 L320.34,22.51 M326.43,816.61 L326.43,812.11 M326.43,18.01 L326.43,22.51
		M332.52,816.61 L332.52,812.11 M332.52,18.01 L332.52,22.51  '/></g>
<g fill="none" color="black" stroke="black" stroke-width="0.50" stroke-linecap="butt" stroke-linejoin="miter">
</g>
<g fill="none" color="gray" stroke="currentColor" stroke-width="0.50" stroke-linecap="butt" stroke-linejoin="miter">
	<path stroke='gray' stroke-dasharray='2,4' class="gridline"  d='M338.62,816.61 L338.62,18.01  '/></g>
<g fill="none" color="gray" stroke="gray" stroke-width="1.00" stroke-linecap="butt" stroke-linejoin="miter">
</g>
<g fill="none" color="black" stroke="currentColor" stroke-width="1.00" stroke-linecap="butt" stroke-linejoin="miter">
	<path stroke='black'  d='M338.62,816.61 L338.62,807.61 M338.62,18.01 L338.62,27.01  '/>	<g transform="translate(341.99,826.95) rotate(-60)" stroke="none" fill="black" font-family="Arial" font-size="12.00"  text-anchor="end">
		<text><tspan font-family="Arial" >Sun 09/25</tspan></text>
	</g>
</g>
<g fill="none" color="black" stroke="currentColor" stroke-width="1.00" stroke-linecap="butt" stroke-linejoin="miter">
	<path stroke='black'  d='M344.71,816.61 L344.71,812.11 M344.71,18.01 L344.71,22.51 M350.80,816.61 L350.80,812.11 M350.80,18.01 L350.80,22.51
		M356.90,816.61 L356.90,812.11 M356.90,18.01 L356.90,22.51  '/></g>
<g fill="none" color="black" stroke="black" stroke-width="0.50" stroke-linecap="butt" stroke-linejoin="miter">
</g>
<g fill="none" color="gray" stroke="currentColor" stroke-width="0.50" stroke-linecap="butt" stroke-linejoin="miter">
	<path stroke='gray' stroke-dasharray='2,4' class="gridline"  d='M362.99,816.61 L362.99,18.01  '/></g>
<g fill="none" color="gray" stroke="gray" stroke-width="1.00" stroke-linecap="butt" stroke-linejoin="miter">
</g>
<g fill="none" color="black" stroke="currentColor" stroke-width="1.00" stroke-linecap="butt" stroke-linejoin="miter">
	<path stroke='black'  d='M362.99,816.61 L362.99,807.61 M362.99,18.01 L362.99,27.01  '/>	<g transform="translate(366.36,826.95) rotate(-60)" stroke="none" fill="black" font-family="Arial" font-size="12.00"  text-anchor="end">
		<text><tspan font-family="Arial" >Mon 09/26</tspan></text>
	</g>
</g>
<g fill="none" color="black" stroke="currentColor" stroke-width="1.00" stroke-linecap="butt" stroke-linejoin="miter">
	<path stroke='black'  d='M369.08,816.61 L369.08,812.11 M369.08,18.01 L369.08,22.51 M375.17,816.61 L375.17,812.11 M375.17,18.01 L375.17,22.51
		M381.27,816.61 L381.27,812.11 M381.27,18.01 L381.27,22.51  '/></g>
<g fill="none" color="black" stroke="black" stroke-width="0.50" stroke-linecap="butt" stroke-linejoin="miter">
</g>
<g fill="none" color="gray" stroke="currentColor" stroke-width="0.50" stroke-linecap="butt" stroke-linejoin="miter">
	<path stroke='gray' stroke-dasharray='2,4' class="gridline"  d='M387.36,816.61 L387.36,18.01  '/></g>
<g fill="none" color="gray" stroke="gray" stroke-width="1.00" stroke-linecap="butt" stroke-linejoin="miter">
</g>
<g fill="none" color="black" stroke="currentColor" stroke-width="1.00" stroke-linecap="butt" stroke-linejoin="miter">
	<path stroke='black'  d='M387.36,816.61 L387.36,807.61 M387.36,18.01 L387.36,27.01  '/>	<g transform="translate(390.73,826.95) rotate(-60)" stroke="none" fill="black" font-family="Arial" font-size="12.00"  text-anchor="end">
		<text><tspan font-family="Arial" >Tue 09/27</tspan></text>
	</g>
</g>
<g fill="none" color="black" stroke="currentColor" stroke-width="1.00" stroke-linecap="butt" stroke-linejoin="miter">
	<path stroke='black'  d='M393.45,816.61 L393.45,812.11 M393.45,18.01 L393.45,22.51 M399.55,816.61 L399.55,812.11 M399.55,18.01 L399.55,22.51
		M405.64,816.61 L405.64,812.11 M405.64,18.01 L405.64,22.51  '/></g>
<g fill="none" color="black" stroke="black" stroke-width="0.50" stroke-linecap="butt" stroke-linejoin="miter">
</g>
<g fill="none" color="gray" stroke="currentColor" stroke-width="0.50" stroke-linecap="butt" stroke-linejoin="miter">
	<path stroke='gray' stroke-dasharray='2,4' class="gridline"  d='M411.73,816.61 L411.73,18.01  '/></g>
<g fill="none" color="gray" stroke="gray" stroke-width="1.00" stroke-linecap="butt" stroke-linejoin="miter">
</g>
<g fill="none" color="black" stroke="currentColor" stroke-width="1.00" stroke-linecap="butt" stroke-linejoin="miter">
	<path stroke='black'  d='M411.73,816.61 L411.73,807.61 M411.73,18.01 L411.73,27.01  '/>	<g transform="translate(415.10,826.95) rotate(-60)" stroke="none" fill="black" font-family="Arial" font-size="12.00"  text-anchor="end">
		<text><tspan font-family="Arial" >Wed 09/28</tspan></text>
	</g>
</g>
<g fill="none" color="black" stroke="currentColor" stroke-width="1.00" stroke-linecap="butt" stroke-linejoin="miter">
	<path stroke='black'  d='M417.83,816.61 L417.83,812.11 M417.83,18.01 L417.83,22.51 M423.92,816.61 L423.92,812.11 M423.92,18.01 L423.92,22.51
		M430.01,816.61 L430.01,812.11 M430.01,18.01 L430.01,22.51  '/></g>
<g fill="none" color="black" stroke="black" stroke-width="0.50" stroke-linecap="butt" stroke-linejoin="miter">
</g>
<g fill="none" color="gray" stroke="currentColor" stroke-width="0.50" stroke-linecap="butt" stroke-linejoin="miter">
	<path stroke='gray' stroke-dasharray='2,4' class="gridline"  d='M436.11,816.61 L436.11,18.01  '/></g>
<g fill="none" color="gray" stroke="gray" stroke-width="1.00" stroke-linecap="butt" stroke-linejoin="miter">
</g>
<g fill="none" color="black" stroke="currentColor" stroke-width="1.00" stroke-linecap="butt" stroke-linejoin="miter">
	<path stroke='black'  d='M436.11,816.61 L436.11,807.61 M436.11,18.01 L436.11,27.01  '/>	<g transform="translate(439.48,826.95) rotate(-60)" stroke="none" fill="black" font-family="Arial" font-size="12.00"  text-anchor="end">
		<text><tspan font-family="Arial" >Thu 09/29</tspan></text>
	</g>
</g>
<g fill="none" color="black" stroke="currentColor" stroke-width="1.00" stroke-linecap="butt" stroke-linejoin="miter">
	<path stroke='black'  d='M442.20,816.61 L442.20,812.11 M442.20,18.01 L442.20,22.51 M448.29,816.61 L448.29,812.11 M448.29,18.01 L448.29,22.51
		M454.39,816.61 L454.39,812.11 M454.39,18.01 L454.39,22.51  '/></g>
<g fill="none" color="black" stroke="black" stroke-width="0.50" stroke-linecap="butt" stroke-linejoin="miter">
</g>
<g fill="none" color="gray" stroke="currentColor" stroke-width="0.50" stroke-linecap="butt" stroke-linejoin="miter">
	<path stroke='gray' stroke-dasharray='2,4' class="gridline"  d='M460.48,816.61 L460.48,18.01  '/></g>
<g fill="none" color="gray" stroke="gray" stroke-width="1.00" stroke-linecap="butt" stroke-linejoin="miter">
</g>
<g fill="none" color="black" stroke="currentColor" stroke-width="1.00" stroke-linecap="butt" stroke-linejoin="miter">
	<path stroke='black'  d='M460.48,816.61 L460.48,807.61 M460.48,18.01 L460.48,27.01  '/>	<g transform="translate(463.85,826.95) rotate(-60)" stroke="none" fill="black" font-family="Arial" font-size="12.00"  text-anchor="end">
		<text><tspan font-family="Arial" >Fri 09/30</tspan></text>
	</g>
</g>
<g fill="none" color="black" stroke="currentColor" stroke-width="1.00" stroke-linecap="butt" stroke-linejoin="miter">
	<path stroke='black'  d='M466.57,816.61 L466.57,812.11 M466.57,18.01 L466.57,22.51 M472.67,816.61 L472.67,812.11 M472.67,18.01 L472.67,22.51
		M478.76,816.61 L478.76,812.11 M478.76,18.01 L478.76,22.51  '/></g>
<g fill="none" color="black" stroke="black" stroke-width="0.50" stroke-linecap="butt" stroke-linejoin="miter">
</g>
<g fill="none" color="gray" stroke="currentColor" stroke-width="0.50" stroke-linecap="butt" stroke-linejoin="miter">
	<path stroke='gray' stroke-dasharray='2,4' class="gridline"  d='M484.85,816.61 L484.85,18.01  '/></g>
<g fill="none" color="gray" stroke="gray" stroke-width="1.00" stroke-linecap="butt" stroke-linejoin="miter">
</g>
<g fill="none" color="black" stroke="currentColor" stroke-width="1.00" stroke-linecap="butt" stroke-linejoin="miter">
	<path stroke='black'  d='M484.85,816.61 L484.85,807.61 M484.85,18.01 L484.85,27.01  '/>	<g transform="translate(488.22,826.95) rotate(-60)" stroke="none" fill="black" font-family="Arial" font-size="12.00"  text-anchor="end">
		<text><tspan font-family="Arial" >Sat 10/01</tspan></text>
	</g>
</g>
<g fill="none" color="black" stroke="currentColor" stroke-width="1.00" stroke-linecap="butt" stroke-linejoin="miter">
	<path stroke='black'  d='M490.95,816.61 L490.95,812.11 M490.95,18.01 L490.95,22.51 M497.04,816.61 L497.04,812.11 M497.04,18.01 L497.04,22.51
		M503.13,816.61 L503.13,812.11 M503.13,18.01 L503.13,22.51  '/></g>
<g fill="none" color="black" stroke="black" stroke-width="0.50" stroke-linecap="butt" stroke-linejoin="miter">
</g>
<g fill="none" color="gray" stroke="currentColor" stroke-width="0.50" stroke-linecap="butt" stroke-linejoin="miter">
	<path stroke='gray' stroke-dasharray='2,4' class="gridline"  d='M509.23,816.61 L509.23,18.01  '/></g>
<g fill="none" color="gray" stroke="gray" stroke-width="1.00" stroke-linecap="butt" stroke-linejoin="miter">
</g>
<g fill="none" color="black" stroke="currentColor" stroke-width="1.00" stroke-linecap="butt" stroke-linejoin="miter">
	<path stroke='black'  d='M509.23,816.61 L509.23,807.61 M509.23,18.01 L509.23,27.01  '/>	<g transform="translate(512.60,826.95) rotate(-60)" stroke="none" fill="black" font-family="Arial" font-size="12.00"  text-anchor="end">
		<text><tspan font-family="Arial" >Sun 10/02</tspan></text>
	</g>
</g>
<g fill="none" color="black" stroke="currentColor" stroke-width="1.00" stroke-linecap="butt" stroke-linejoin="miter">
	<path stroke='black'  d='M515.32,816.61 L515.32,812.11 M515.32,18.01 L515.32,22.51 M521.41,816.61 L521.41,812.11 M521.41,18.01 L521.41,22.51
		M527.51,816.61 L527.51,812.11 M527.51,18.01 L527.51,22.51  '/></g>
<g fill="none" color="black" stroke="black" stroke-width="0.50" stroke-linecap="butt" stroke-linejoin="miter">
</g>
<g fill="none" color="gray" stroke="currentColor" stroke-width="0.50" stroke-linecap="butt" stroke-linejoin="miter">
	<path stroke='gray' stroke-dasharray='2,4' class="gridline"  d='M533.60,816.61 L533.60,18.01  '/></g>
<g fill="none" color="gray" stroke="gray" stroke-width="1.00" stroke-linecap="butt" stroke-linejoin="miter">
</g>
<g fill="none" color="black" stroke="currentColor" stroke-width="1.00" stroke-linecap="butt" stroke-linejoin="miter">
	<path stroke='black'  d='M533.60,816.61 L533.60,807.61 M533.60,18.01 L533.60,27.01  '/>	<g transform="translate(536.97,826.95) rotate(-60)" stroke="none" fill="black" font-family="Arial" font-size="12.00"  text-anchor="end">
		<text><tspan font-family="Arial" >Mon 10/03</tspan></text>
	</g>
</g>
<g fill="none" color="black" stroke="currentColor" stroke-width="1.00" stroke-linecap="butt" stroke-linejoin="miter">
	<path stroke='black'  d='M539.69,816.61 L539.69,812.11 M539.69,18.01 L539.69,22.51 M545.79,816.61 L545.79,812.11 M545.79,18.01 L545.79,22.51
		M551.88,816.61 L551.88,812.11 M551.88,18.01 L551.88,22.51  '/></g>
<g fill="none" color="black" stroke="black" stroke-width="0.50" stroke-linecap="butt" stroke-linejoin="miter">
</g>
<g fill="none" color="gray" stroke="currentColor" stroke-width="0.50" stroke-linecap="butt" stroke-linejoin="miter">
	<path stroke='gray' stroke-dasharray='2,4' class="gridline"  d='M557.97,816.61 L557.97,18.01  '/></g>
<g fill="none" color="gray" stroke="gray" stroke-width="1.00" stroke-linecap="butt" stroke-linejoin="miter">
</g>
<g fill="none" color="black" stroke="currentColor" stroke-width="1.00" stroke-linecap="butt" stroke-linejoin="miter">
	<path stroke='black'  d='M557.97,816.61 L557.97,807.61 M557.97,18.01 L557.97,27.01  '/>	<g transform="translate(561.34,826.95) rotate(-60)" stroke="none" fill="black" font-family="Arial" font-size="12.00"  text-anchor="end">
		<text><tspan font-family="Arial" >Tue 10/04</tspan></text>
	</g>
</g>
<g fill="none" color="black" stroke="currentColor" stroke-width="1.00" stroke-linecap="butt" stroke-linejoin="miter">
	<path stroke='black'  d='M564.07,816.61 L564.07,812.11 M564.07,18.01 L564.07,22.51 M570.16,816.61 L570.16,812.11 M570.16,18.01 L570.16,22.51
		M576.25,816.61 L576.25,812.11 M576.25,18.01 L576.25,22.51  '/></g>
<g fill="none" color="black" stroke="black" stroke-width="0.50" stroke-linecap="butt" stroke-linejoin="miter">
</g>
<g fill="none" color="gray" stroke="currentColor" stroke-width="0.50" stroke-linecap="butt" stroke-linejoin="miter">
	<path stroke='gray' stroke-dasharray='2,4' class="gridline"  d='M582.34,816.61 L582.34,18.01  '/></g>
<g fill="none" color="gray" stroke="gray" stroke-width="1.00" stroke-linecap="butt" stroke-linejoin="miter">
</g>
<g fill="none" color="black" stroke="currentColor" stroke-width="1.00" stroke-linecap="butt" stroke-linejoin="miter">
	<path stroke='black'  d='M582.34,816.61 L582.34,807.61 M582.34,18.01 L582.34,27.01  '/>	<g transform="translate(585.71,826.95) rotate(-60)" stroke="none" fill="black" font-family="Arial" font-size="12.00"  text-anchor="end">
		<text><tspan font-family="Arial" >Wed 10/05</tspan></text>
	</g>
</g>
<g fill="none" color="black" stroke="currentColor" stroke-width="1.00" stroke-linecap="butt" stroke-linejoin="miter">
	<path stroke='black'  d='M588.44,816.61 L588.44,812.11 M588.44,18.01 L588.44,22.51 M594.53,816.61 L594.53,812.11 M594.53,18.01 L594.53,22.51
		M600.62,816.61 L600.62,812.11 M600.62,18.01 L600.62,22.51  '/></g>
<g fill="none" color="black" stroke="black" stroke-width="0.50" stroke-linecap="butt" stroke-linejoin="miter">
</g>
<g fill="none" color="gray" stroke="currentColor" stroke-width="0.50" stroke-linecap="butt" stroke-linejoin="miter">
	<path stroke='gray' stroke-dasharray='2,4' class="gridline"  d='M606.72,816.61 L606.72,18.01  '/></g>
<g fill="none" color="gray" stroke="gray" stroke-width="1.00" stroke-linecap="butt" stroke-linejoin="miter">
</g>
<g fill="none" color="black" stroke="currentColor" stroke-width="1.00" stroke-linecap="butt" stroke-linejoin="miter">
	<path stroke='black'  d='M606.72,816.61 L606.72,807.61 M606.72,18.01 L606.72,27.01  '/>	<g transform="translate(610.09,826.95) rotate(-60)" stroke="none" fill="black" font-family="Arial" font-size="12.00"  text-anchor="end">
		<text><tspan font-family="Arial" >Thu 10/06</tspan></text>
	</g>
</g>
<g fill="none" color="black" stroke="currentColor" stroke-width="1.00" stroke-linecap="butt" stroke-linejoin="miter">
	<path stroke='black'  d='M612.81,816.61 L612.81,812.11 M612.81,18.01 L612.81,22.51 M618.90,816.61 L618.90,812.11 M618.90,18.01 L618.90,22.51
		M625.00,816.61 L625.00,812.11 M625.00,18.01 L625.00,22.51  '/></g>
<g fill="none" color="black" stroke="black" stroke-width="0.50" stroke-linecap="butt" stroke-linejoin="miter">
</g>
<g fill="none" color="gray" stroke="currentColor" stroke-width="0.50" stroke-linecap="butt" stroke-linejoin="miter">
	<path stroke='gray' stroke-dasharray='2,4' class="gridline"  d='M631.09,816.61 L631.09,18.01  '/></g>
<g fill="none" color="gray" stroke="gray" stroke-width="1.00" stroke-linecap="butt" stroke-linejoin="miter">
</g>
<g fill="none" color="black" stroke="currentColor" stroke-width="1.00" stroke-linecap="butt" stroke-linejoin="miter">
	<path stroke='black'  d='M631.09,816.61 L631.09,807.61 M631.09,18.01 L631.09,27.01  '/>	<g transform="translate(634.46,826.95) rotate(-60)" stroke="none" fill="black" font-family="Arial" font-size="12.00"  text-anchor="end">
		<text><tspan font-family="Arial" >Fri 10/07</tspan></text>
	</g>
</g>
<g fill="none" color="black" stroke="currentColor" stroke-width="1.00" stroke-linecap="butt" stroke-linejoin="miter">
	<path stroke='black'  d='M637.18,816.61 L637.18,812.11 M637.18,18.01 L637.18,22.51 M643.28,816.61 L643.28,812.11 M643.28,18.01 L643.28,22.51
		M649.37,816.61 L649.37,812.11 M649.37,18.01 L649.37,22.51  '/></g>
<g fill="none" color="black" stroke="black" stroke-width="0.50" stroke-linecap="butt" stroke-linejoin="miter">
</g>
<g fill="none" color="gray" stroke="currentColor" stroke-width="0.50" stroke-linecap="butt" stroke-linejoin="miter">
	<path stroke='gray' stroke-dasharray='2,4' class="gridline"  d='M655.46,816.61 L655.46,18.01  '/></g>
<g fill="none" color="gray" stroke="gray" stroke-width="1.00" stroke-linecap="butt" stroke-linejoin="miter">
</g>
<g fill="none" color="black" stroke="currentColor" stroke-width="1.00" stroke-linecap="butt" stroke-linejoin="miter">
	<path stroke='black'  d='M655.46,816.61 L655.46,807.61 M655.46,18.01 L655.46,27.01  '/>	<g transform="translate(658.83,826.95) rotate(-60)" stroke="none" fill="black" font-family="Arial" font-size="12.00"  text-anchor="end">
		<text><tspan font-family="Arial" >Sat 10/08</tspan></text>
	</g>
</g>
<g fill="none" color="black" stroke="currentColor" stroke-width="1.00" stroke-linecap="butt" stroke-linejoin="miter">
	<path stroke='black'  d='M661.56,816.61 L661.56,812.11 M661.56,18.01 L661.56,22.51 M667.65,816.61 L667.65,812.11 M667.65,18.01 L667.65,22.51
		M673.74,816.61 L673.74,812.11 M673.74,18.01 L673.74,22.51  '/></g>
<g fill="none" color="black" stroke="black" stroke-width="0.50" stroke-linecap="butt" stroke-linejoin="miter">
</g>
<g fill="none" color="gray" stroke="currentColor" stroke-width="0.50" stroke-linecap="butt" stroke-linejoin="miter">
	<path stroke='gray' stroke-dasharray='2,4' class="gridline"  d='M679.84,816.61 L679.84,135.01 M679.84,27.01 L679.84,18.01  '/></g>
<g fill="none" color="gray" stroke="gray" stroke-width="1.00" stroke-linecap="butt" stroke-linejoin="miter">
</g>
<g fill="none" color="black" stroke="currentColor" stroke-width="1.00" stroke-linecap="butt" stroke-linejoin="miter">
	<path stroke='black'  d='M679.84,816.61 L679.84,807.61 M679.84,18.01 L679.84,27.01  '/>	<g transform="translate(683.21,826.95) rotate(-60)" stroke="none" fill="black" font-family="Arial" font-size="12.00"  text-anchor="end">
		<text><tspan font-family="Arial" >Sun 10/09</tspan></text>
	</g>
</g>
<g fill="none" color="black" stroke="currentColor" stroke-width="1.00" stroke-linecap="butt" stroke-linejoin="miter">
	<path stroke='black'  d='M685.93,816.61 L685.93,812.11 M685.93,18.01 L685.93,22.51 M692.02,816.61 L692.02,812.11 M692.02,18.01 L692.02,22.51
		M698.12,816.61 L698.12,812.11 M698.12,18.01 L698.12,22.51  '/></g>
<g fill="none" color="black" stroke="black" stroke-width="0.50" stroke-linecap="butt" stroke-linejoin="miter">
</g>
<g fill="none" color="gray" stroke="currentColor" stroke-width="0.50" stroke-linecap="butt" stroke-linejoin="miter">
	<path stroke='gray' stroke-dasharray='2,4' class="gridline"  d='M704.21,816.61 L704.21,135.01 M704.21,27.01 L704.21,18.01  '/></g>
<g fill="none" color="gray" stroke="gray" stroke-width="1.00" stroke-linecap="butt" stroke-linejoin="miter">
</g>
<g fill="none" color="black" stroke="currentColor" stroke-width="1.00" stroke-linecap="butt" stroke-linejoin="miter">
	<path stroke='black'  d='M704.21,816.61 L704.21,807.61 M704.21,18.01 L704.21,27.01  '/>	<g transform="translate(707.58,826.95) rotate(-60)" stroke="none" fill="black" font-family="Arial" font-size="12.00"  text-anchor="end">
		<text><tspan font-family="Arial" >Mon 10/10</tspan></text>
	</g>
</g>
<g fill="none" color="black" stroke="currentColor" stroke-width="1.00" stroke-linecap="butt" stroke-linejoin="miter">
	<path stroke='black'  d='M710.30,816.61 L710.30,812.11 M710.30,18.01 L710.30,22.51 M716.40,816.61 L716.40,812.11 M716.40,18.01 L716.40,22.51
		M722.49,816.61 L722.49,812.11 M722.49,18.01 L722.49,22.51  '/></g>
<g fill="none" color="black" stroke="black" stroke-width="0.50" stroke-linecap="butt" stroke-linejoin="miter">
</g>
<g fill="none" color="gray" stroke="currentColor" stroke-width="0.50" stroke-linecap="butt" stroke-linejoin="miter">
	<path stroke='gray' stroke-dasharray='2,4' class="gridline"  d='M728.58,816.61 L728.58,135.01 M728.58,27.01 L728.58,18.01  '/></g>
<g fill="none" color="gray" stroke="gray" stroke-width="1.00" stroke-linecap="butt" stroke-linejoin="miter">
</g>
<g fill="none" color="black" stroke="currentColor" stroke-width="1.00" stroke-linecap="butt" stroke-linejoin="miter">
	<path stroke='black'  d='M728.58,816.61 L728.58,807.61 M728.58,18.01 L728.58,27.01  '/>	<g transform="translate(731.95,826.95) rotate(-60)" stroke="none" fill="black" font-family="Arial" font-size="12.00"  text-anchor="end">
		<text><tspan font-family="Arial" >Tue 10/11</tspan></text>
	</g>
</g>
<g fill="none" color="black" stroke="currentColor" stroke-width="1.00" stroke-linecap="butt" stroke-linejoin="miter">
	<path stroke='black'  d='M734.68,816.61 L734.68,812.11 M734.68,18.01 L734.68,22.51 M740.77,816.61 L740.77,812.11 M740.77,18.01 L740.77,22.51
		M746.86,816.61 L746.86,812.11 M746.86,18.01 L746.86,22.51  '/></g>
<g fill="none" color="black" stroke="black" stroke-width="0.50" stroke-linecap="butt" stroke-linejoin="miter">
</g>
<g fill="none" color="gray" stroke="currentColor" stroke-width="0.50" stroke-linecap="butt" stroke-linejoin="miter">
	<path stroke='gray' stroke-dasharray='2,4' class="gridline"  d='M752.96,816.61 L752.96,135.01 M752.96,27.01 L752.96,18.01  '/></g>
<g fill="none" color="gray" stroke="gray" stroke-width="1.00" stroke-linecap="butt" stroke-linejoin="miter">
</g>
<g fill="none" color="black" stroke="currentColor" stroke-width="1.00" stroke-linecap="butt" stroke-linejoin="miter">
	<path stroke='black'  d='M752.96,816.61 L752.96,807.61 M752.96,18.01 L752.96,27.01  '/>	<g transform="translate(756.33,826.95) rotate(-60)" stroke="none" fill="black" font-family="Arial" font-size="12.00"  text-anchor="end">
		<text><tspan font-family="Arial" >Wed 10/12</tspan></text>
	</g>
</g>
<g fill="none" color="black" stroke="currentColor" stroke-width="1.00" stroke-linecap="butt" stroke-linejoin="miter">
	<path stroke='black'  d='M759.05,816.61 L759.05,812.11 M759.05,18.01 L759.05,22.51 M765.14,816.61 L765.14,812.11 M765.14,18.01 L765.14,22.51
		M771.24,816.61 L771.24,812.11 M771.24,18.01 L771.24,22.51  '/></g>
<g fill="none" color="black" stroke="black" stroke-width="0.50" stroke-linecap="butt" stroke-linejoin="miter">
</g>
<g fill="none" color="gray" stroke="currentColor" stroke-width="0.50" stroke-linecap="butt" stroke-linejoin="miter">
	<path stroke='gray' stroke-dasharray='2,4' class="gridline"  d='M777.33,816.61 L777.33,135.01 M777.33,27.01 L777.33,18.01  '/></g>
<g fill="none" color="gray" stroke="gray" stroke-width="1.00" stroke-linecap="butt" stroke-linejoin="miter">
</g>
<g fill="none" color="black" stroke="currentColor" stroke-width="1.00" stroke-linecap="butt" stroke-linejoin="miter">
	<path stroke='black'  d='M777.33,816.61 L777.33,807.61 M777.33,18.01 L777.33,27.01  '/>	<g transform="translate(780.70,826.95) rotate(-60)" stroke="none" fill="black" font-family="Arial" font-size="12.00"  text-anchor="end">
		<text><tspan font-family="Arial" >Thu 10/13</tspan></text>
	</g>
</g>
<g fill="none" color="black" stroke="currentColor" stroke-width="1.00" stroke-linecap="butt" stroke-linejoin="miter">
	<path stroke='black'  d='M783.42,816.61 L783.42,812.11 M783.42,18.01 L783.42,22.51 M789.51,816.61 L789.51,812.11 M789.51,18.01 L789.51,22.51
		M795.61,816.61 L795.61,812.11 M795.61,18.01 L795.61,22.51  '/></g>
<g fill="none" color="black" stroke="black" stroke-width="0.50" stroke-linecap="butt" stroke-linejoin="miter">
</g>
<g fill="none" color="gray" stroke="currentColor" stroke-width="0.50" stroke-linecap="butt" stroke-linejoin="miter">
	<path stroke='gray' stroke-dasharray='2,4' class="gridline"  d='M801.70,816.61 L801.70,135.01 M801.70,27.01 L801.70,18.01  '/></g>
<g fill="none" color="gray" stroke="gray" stroke-width="1.00" stroke-linecap="butt" stroke-linejoin="miter">
</g>
<g fill="none" color="black" stroke="currentColor" stroke-width="1.00" stroke-linecap="butt" stroke-linejoin="miter">
	<path stroke='black'  d='M801.70,816.61 L801.70,807.61 M801.70,18.01 L801.70,27.01  '/>	<g transform="translate(805.07,826.95) rotate(-60)" stroke="none" fill="black" font-family="Arial" font-size="12.00"  text-anchor="end">
		<text><tspan font-family="Arial" >Fri 10/14</tspan></text>
	</g>
</g>
<g fill="none" color="black" stroke="currentColor" stroke-width="1.00" stroke-linecap="butt" stroke-linejoin="miter">
	<path stroke='black'  d='M807.79,816.61 L807.79,812.11 M807.79,18.01 L807.79,22.51 M813.89,816.61 L813.89,812.11 M813.89,18.01 L813.89,22.51
		M819.98,816.61 L819.98,812.11 M819.98,18.01 L819.98,22.51  '/></g>
<g fill="none" color="black" stroke="black" stroke-width="0.50" stroke-linecap="butt" stroke-linejoin="miter">
</g>
<g fill="none" color="gray" stroke="currentColor" stroke-width="0.50" stroke-linecap="butt" stroke-linejoin="miter">
	<path stroke='gray' stroke-dasharray='2,4' class="gridline"  d='M826.07,816.61 L826.07,135.01 M826.07,27.01 L826.07,18.01  '/></g>
<g fill="none" color="gray" stroke="gray" stroke-width="1.00" stroke-linecap="butt" stroke-linejoin="miter">
</g>
<g fill="none" color="black" stroke="currentColor" stroke-width="1.00" stroke-linecap="butt" stroke-linejoin="miter">
	<path stroke='black'  d='M826.07,816.61 L826.07,807.61 M826.07,18.01 L826.07,27.01  '/>	<g transform="translate(829.44,826.95) rotate(-60)" stroke="none" fill="black" font-family="Arial" font-size="12.00"  text-anchor="end">
		<text><tspan font-family="Arial" >Sat 10/15</tspan></text>
	</g>
</g>
<g fill="none" color="black" stroke="currentColor" stroke-width="1.00" stroke-linecap="butt" stroke-linejoin="miter">
	<path stroke='black'  d='M832.17,816.61 L832.17,812.11 M832.17,18.01 L832.17,22.51 M838.26,816.61 L838.26,812.11 M838.26,18.01 L838.26,22.51
		M844.35,816.61 L844.35,812.11 M844.35,18.01 L844.35,22.51  '/></g>
<g fill="none" color="black" stroke="black" stroke-width="0.50" stroke-linecap="butt" stroke-linejoin="miter">
</g>
<g fill="none" color="gray" stroke="currentColor" stroke-width="0.50" stroke-linecap="butt" stroke-linejoin="miter">
	<path stroke='gray' stroke-dasharray='2,4' class="gridline"  d='M850.45,816.61 L850.45,135.01 M850.45,27.01 L850.45,18.01  '/></g>
<g fill="none" color="gray" stroke="gray" stroke-width="1.00" stroke-linecap="butt" stroke-linejoin="miter">
</g>
<g fill="none" color="black" stroke="currentColor" stroke-width="1.00" stroke-linecap="butt" stroke-linejoin="miter">
	<path stroke='black'  d='M850.45,816.61 L850.45,807.61 M850.45,18.01 L850.45,27.01  '/>	<g transform="translate(853.82,826.95) rotate(-60)" stroke="none" fill="black" font-family="Arial" font-size="12.00"  text-anchor="end">
		<text><tspan font-family="Arial" >Sun 10/16</tspan></text>
	</g>
</g>
<g fill="none" color="black" stroke="currentColor" stroke-width="1.00" stroke-linecap="butt" stroke-linejoin="miter">
	<path stroke='black'  d='M856.54,816.61 L856.54,812.11 M856.54,18.01 L856.54,22.51 M862.63,816.61 L862.63,812.11 M862.63,18.01 L862.63,22.51
		M868.73,816.61 L868.73,812.11 M868.73,18.01 L868.73,22.51  '/></g>
<g fill="none" color="black" stroke="black" stroke-width="0.50" stroke-linecap="butt" stroke-linejoin="miter">
</g>
<g fill="none" color="gray" stroke="currentColor" stroke-width="0.50" stroke-linecap="butt" stroke-linejoin="miter">
	<path stroke='gray' stroke-dasharray='2,4' class="gridline"  d='M874.82,816.61 L874.82,18.01  '/></g>
<g fill="none" color="gray" stroke="gray" stroke-width="1.00" stroke-linecap="butt" stroke-linejoin="miter">
</g>
<g fill="none" color="black" stroke="currentColor" stroke-width="1.00" stroke-linecap="butt" stroke-linejoin="miter">
	<path stroke='black'  d='M874.82,816.61 L874.82,807.61 M874.82,18.01 L874.82,27.01  '/>	<g transform="translate(878.19,826.95) rotate(-60)" stroke="none" fill="black" font-family="Arial" font-size="12.00"  text-anchor="end">
		<text><tspan font-family="Arial" >Mon 10/17</tspan></text>
	</g>
</g>
<g fill="none" color="black" stroke="currentColor" stroke-width="1.00" stroke-linecap="butt" stroke-linejoin="miter">
</g>
<g fill="none" color="black" stroke="currentColor" stroke-width="1.00" stroke-linecap="butt" stroke-linejoin="miter">
	<path stroke='black'  d='M46.14,18.01 L46.14,816.61 L874.82,816.61 L874.82,18.01 L46.14,18.01 Z  '/>	<g transform="translate(477.05,422.51)" stroke="none" fill="rgb(34,139,34)" font-family="Arial" font-size="16.00"  text-anchor="start">
		<text><tspan font-family="Arial" >20</tspan></text>
	</g>
	<g transform="translate(477.05,662.09)" stroke="none" fill="rgb(192,128,255)" font-family="Arial" font-size="16.00"  text-anchor="start">
		<text><tspan font-family="Arial" >8</tspan></text>
	</g>
	<g transform="translate(477.05,721.98)" stroke="none" fill="rgb(200,200,0)" font-family="Arial" font-size="16.00"  text-anchor="start">
		<text><tspan font-family="Arial" >5</tspan></text>
	</g>
</g>
<g fill="none" color="black" stroke="currentColor" stroke-width="1.00" stroke-linecap="butt" stroke-linejoin="miter">
	<path stroke='rgb( 34, 139,  34)' stroke-dasharray='1.0,2.5,1.0,2.5'  d='M857.45,421.95 L874.83,417.30 L857.45,412.65 M46.15,417.30 L874.83,417.30  '/></g>
<g fill="none" color="black" stroke="currentColor" stroke-width="1.00" stroke-linecap="butt" stroke-linejoin="miter">
	<path stroke='rgb(192, 128, 255)' stroke-dasharray='1.0,2.5,1.0,2.5'  d='M857.45,661.53 L874.83,656.88 L857.45,652.23 M46.15,656.88 L874.83,656.88  '/></g>
<g fill="none" color="black" stroke="currentColor" stroke-width="1.00" stroke-linecap="butt" stroke-linejoin="miter">
	<path stroke='rgb(200, 200,   0)' stroke-dasharray='1.0,2.5,1.0,2.5'  d='M857.45,721.42 L874.83,716.77 L857.45,712.12 M46.15,716.77 L874.83,716.77  '/></g>
<g fill="none" color="black" stroke="currentColor" stroke-width="1.00" stroke-linecap="butt" stroke-linejoin="miter">
</g>
<g fill="none" color="black" stroke="currentColor" stroke-width="1.00" stroke-linecap="butt" stroke-linejoin="miter">
	<path stroke='rgb(153, 153, 153)'  d='M656.07,135.01 L656.07,27.01 L866.43,27.01 L866.43,135.01 L656.07,135.01 Z  '/></g>
	<g id="gnuplot_plot_1" ><title>exercise (minutes)</title>
<g fill="none" color="white" stroke="rgb(153, 153, 153)" stroke-width="2.00" stroke-linecap="butt" stroke-linejoin="miter">
</g>
<g fill="none" color="black" stroke="currentColor" stroke-width="2.00" stroke-linecap="butt" stroke-linejoin="miter">
	<g transform="translate(807.09,39.91)" stroke="none" fill="black" font-family="Arial" font-size="12.00"  text-anchor="end">
		<text><tspan font-family="Arial" >exercise (minutes)</tspan></text>
	</g>
</g>
<g fill="none" color="black" stroke="currentColor" stroke-width="2.00" stroke-linecap="butt" stroke-linejoin="miter">
	<use xlink:href='#gpPt8' transform='translate(94.89,417.31) scale(4.50)' color='rgb( 34, 139,  34)'/>
	<use xlink:href='#gpPt8' transform='translate(119.26,517.13) scale(4.50)' color='rgb( 34, 139,  34)'/>
	<use xlink:href='#gpPt8' transform='translate(143.63,217.66) scale(4.50)' color='rgb( 34, 139,  34)'/>
	<use xlink:href='#gpPt8' transform='translate(168.00,517.13) scale(4.50)' color='rgb( 34, 139,  34)'/>
	<use xlink:href='#gpPt8' transform='translate(216.75,417.31) scale(4.50)' color='rgb( 34, 139,  34)'/>
	<use xlink:href='#gpPt8' transform='translate(241.12,517.13) scale(4.50)' color='rgb( 34, 139,  34)'/>
	<use xlink:href='#gpPt8' transform='translate(265.50,417.31) scale(4.50)' color='rgb( 34, 139,  34)'/>
	<use xlink:href='#gpPt8' transform='translate(314.24,616.96) scale(4.50)' color='rgb( 34, 139,  34)'/>
	<use xlink:href='#gpPt8' transform='translate(362.99,517.13) scale(4.50)' color='rgb( 34, 139,  34)'/>
	<use xlink:href='#gpPt8' transform='translate(411.73,217.66) scale(4.50)' color='rgb( 34, 139,  34)'/>
	<use xlink:href='#gpPt8' transform='translate(460.48,417.31) scale(4.50)' color='rgb( 34, 139,  34)'/>
	<use xlink:href='#gpPt8' transform='translate(484.85,616.96) scale(4.50)' color='rgb( 34, 139,  34)'/>
	<use xlink:href='#gpPt8' transform='translate(509.23,517.13) scale(4.50)' color='rgb( 34, 139,  34)'/>
	<use xlink:href='#gpPt8' transform='translate(582.34,517.13) scale(4.50)' color='rgb( 34, 139,  34)'/>
	<use xlink:href='#gpPt8' transform='translate(606.72,317.48) scale(4.50)' color='rgb( 34, 139,  34)'/>
	<use xlink:href='#gpPt8' transform='translate(631.09,317.48) scale(4.50)' color='rgb( 34, 139,  34)'/>
	<use xlink:href='#gpPt8' transform='translate(655.46,417.31) scale(4.50)' color='rgb( 34, 139,  34)'/>
	<use xlink:href='#gpPt8' transform='translate(836.76,36.01) scale(4.50)' color='rgb( 34, 139,  34)'/>
</g>
	</g>
	<g id="gnuplot_plot_2" ><title>sleep (hours)</title>
<g fill="none" color="black" stroke="currentColor" stroke-width="2.00" stroke-linecap="butt" stroke-linejoin="miter">
	<g transform="translate(807.09,57.91)" stroke="none" fill="black" font-family="Arial" font-size="12.00"  text-anchor="end">
		<text><tspan font-family="Arial" >sleep (hours)</tspan></text>
	</g>
</g>
<g fill="none" color="black" stroke="currentColor" stroke-width="2.00" stroke-linecap="butt" stroke-linejoin="miter">
	<path stroke='rgb(192, 128, 255)'  d='M815.48,54.01 L858.04,54.01 M46.14,577.03 L70.51,577.03 L94.89,577.03 L119.26,537.10 L143.63,577.03 L168.00,636.92
		L192.38,676.85 L216.75,656.89 L241.12,616.96 L265.50,596.99 L289.87,636.92 L314.24,557.06 L338.62,646.91 L362.99,557.06
		L387.36,616.96 L411.73,616.96 L436.11,577.03 L460.48,696.82 L484.85,666.87 L509.23,656.89 L533.60,696.82 L557.97,646.91
		L582.34,656.89 L606.72,646.91 L631.09,696.82 L655.46,636.92 L679.84,696.82 L704.21,696.82 L728.58,686.84 L752.96,756.71
		L777.33,726.77 L801.70,736.75 L826.07,716.78 L850.45,776.68 L874.82,726.77  '/></g>
	</g>
	<g id="gnuplot_plot_3" ><title>nicotine (doses)</title>
<g fill="none" color="black" stroke="currentColor" stroke-width="2.00" stroke-linecap="butt" stroke-linejoin="miter">
	<g transform="translate(807.09,75.91)" stroke="none" fill="black" font-family="Arial" font-size="12.00"  text-anchor="end">
		<text><tspan font-family="Arial" >nicotine (doses)</tspan></text>
	</g>
</g>
<g fill="none" color="black" stroke="currentColor" stroke-width="2.00" stroke-linecap="butt" stroke-linejoin="miter">
	<path stroke='rgb(200, 200,   0)'  d='M815.48,72.01 L858.04,72.01 M46.14,656.89 L70.51,676.85 L94.89,656.89 L119.26,716.78 L143.63,676.85 L168.00,676.85
		L192.38,696.82 L216.75,676.85 L241.12,716.78 L265.50,696.82 L289.87,696.82 L314.24,696.82 L338.62,716.78 L362.99,676.85
		L387.36,716.78 L411.73,716.78 L436.11,736.75 L460.48,736.75 L484.85,696.82 L509.23,676.85 L533.60,716.78 L557.97,716.78
		L582.34,716.78 L606.72,716.78 L631.09,716.78 L655.46,816.61 L679.84,756.71 L704.21,716.78 L728.58,736.75 L752.96,816.61
		L777.33,816.61 L801.70,816.61 L826.07,816.61 L850.45,816.61 L874.82,816.61  '/></g>
	</g>
	<g id="gnuplot_plot_4" ><title>distress (scale)</title>
<g fill="none" color="black" stroke="currentColor" stroke-width="2.00" stroke-linecap="butt" stroke-linejoin="miter">
	<g transform="translate(807.09,93.91)" stroke="none" fill="black" font-family="Arial" font-size="12.00"  text-anchor="end">
		<text><tspan font-family="Arial" >distress (scale)</tspan></text>
	</g>
</g>
<g fill="none" color="black" stroke="currentColor" stroke-width="2.00" stroke-linecap="butt" stroke-linejoin="miter">
	<path stroke='rgb(255,  20, 147)'  d='M815.48,90.01 L858.04,90.01 M46.14,716.78 L70.51,736.75 L94.89,756.71 L119.26,756.71 L143.63,736.75 L168.00,716.78
		L192.38,696.82 L216.75,736.75 L241.12,756.71 L265.50,746.73 L289.87,756.71 L314.24,776.68 L338.62,776.68 L362.99,696.82
		L387.36,716.78 L411.73,756.71 L436.11,756.71 L460.48,736.75 L484.85,756.71 L509.23,776.68 L533.60,776.68 L557.97,736.75
		L582.34,736.75 L606.72,736.75 L631.09,756.71 L655.46,756.71 L679.84,736.75 L704.21,716.78 L728.58,736.75 L752.96,756.71
		L777.33,756.71 L801.70,756.71 L826.07,756.71 L850.45,736.75 L874.82,756.71  '/></g>
	</g>
	<g id="gnuplot_plot_5" ><title>missed (doses)</title>
<g fill="none" color="black" stroke="currentColor" stroke-width="2.00" stroke-linecap="butt" stroke-linejoin="miter">
	<g transform="translate(807.09,111.91)" stroke="none" fill="black" font-family="Arial" font-size="12.00"  text-anchor="end">
		<text><tspan font-family="Arial" >missed (doses)</tspan></text>
	</g>
</g>
<g fill="none" color="black" stroke="currentColor" stroke-width="2.00" stroke-linecap="butt" stroke-linejoin="miter">
	<use xlink:href='#gpPt10' transform='translate(94.89,796.64) scale(4.50)' color='rgb(255,   0,   0)'/>
	<use xlink:href='#gpPt10' transform='translate(387.36,796.64) scale(4.50)' color='rgb(255,   0,   0)'/>
	<use xlink:href='#gpPt10' transform='translate(826.07,796.64) scale(4.50)' color='rgb(255,   0,   0)'/>
	<use xlink:href='#gpPt10' transform='translate(836.76,108.01) scale(4.50)' color='rgb(255,   0,   0)'/>
</g>
	</g>
	<g id="gnuplot_plot_6" ><title>pain (scale)</title>
<g fill="none" color="black" stroke="currentColor" stroke-width="2.00" stroke-linecap="butt" stroke-linejoin="miter">
	<g transform="translate(807.09,129.91)" stroke="none" fill="black" font-family="Arial" font-size="12.00"  text-anchor="end">
		<text><tspan font-family="Arial" >pain (scale)</tspan></text>
	</g>
</g>
<g fill="none" color="black" stroke="currentColor" stroke-width="2.00" stroke-linecap="butt" stroke-linejoin="miter">
	<path stroke='rgb(255, 165,   0)'  d='M815.48,126.01 L858.04,126.01 M46.14,816.61 L70.51,816.61 L94.89,816.61 L119.26,816.61 L143.63,796.64 L168.00,776.68
		L192.38,756.71 L216.75,756.71 L241.12,756.71 L265.50,756.71 L289.87,756.71 L314.24,756.71 L338.62,776.68 L362.99,776.68
		L387.36,776.68 L411.73,776.68 L436.11,776.68 L460.48,776.68 L484.85,776.68 L509.23,776.68 L533.60,776.68 L557.97,776.68
		L582.34,776.68 L606.72,776.68 L631.09,776.68 L655.46,776.68 L679.84,776.68 L704.21,776.68 L728.58,776.68 L752.96,776.68
		L777.33,756.71 L801.70,756.71 L826.07,776.68 L850.45,796.64 L874.82,776.68  '/></g>
	</g>
<g fill="none" color="black" stroke="currentColor" stroke-width="2.00" stroke-linecap="butt" stroke-linejoin="miter">
</g>
<g fill="none" color="black" stroke="black" stroke-width="1.00" stroke-linecap="butt" stroke-linejoin="miter">
</g>
<g fill="none" color="black" stroke="currentColor" stroke-width="1.00" stroke-linecap="butt" stroke-linejoin="miter">
	<path stroke='black'  d='M46.14,18.01 L46.14,816.61 L874.82,816.61 L874.82,18.01 L46.14,18.01 Z  '/></g>
<g fill="none" color="black" stroke="currentColor" stroke-width="1.00" stroke-linecap="butt" stroke-linejoin="miter">
</g>
</g>
</svg>

